<?xml version="1.0" encoding="UTF-8"?>
<svg width="186px" height="438px" viewBox="0 0 186 438" version="1.1" xmlns="http://www.w3.org/2000/svg" xmlns:xlink="http://www.w3.org/1999/xlink">
    <!-- Generator: Sketch 50.2 (55047) - http://www.bohemiancoding.com/sketch -->
    <title>person</title>
    <desc>Created with Sketch.</desc>
    <defs></defs>
    <g id="Page-1" stroke="none" stroke-width="1" fill="none" fill-rule="evenodd">
        <g id="person" transform="translate(-3.000000, 0.000000)" fill="#D7D5CE" fill-rule="nonzero">
            <circle id="Oval" cx="95.4356667" cy="36.8071667" r="36.8071667"></circle>
            <path d="M108.257333,91.1645 C99.0861667,89.3025 89.1146667,89.3841667 80.1068333,91.5075 C18.914,98.6778333 -0.9555,169.507333 4.655,223.5135 C7.08866667,246.862 43.8958333,247.107 41.4376667,223.5135 C39.396,203.831833 40.2698333,174.129667 50.7313333,153.018833 C50.7313333,178.6785 50.7313333,204.338167 50.7313333,229.989667 C50.7313333,230.896167 50.8211667,231.7455 50.862,232.619333 C50.8375,233.035833 50.7395,233.387 50.7395,233.811667 C50.7395,294.890167 50.6333333,355.944167 48.1098333,416.973667 C46.991,444.103333 89.0575,443.997167 90.1681667,416.973667 C92.1445,369.1415 92.6426667,321.284833 92.757,273.42 C94.7496667,273.550667 96.7423333,273.550667 98.735,273.436333 C98.8575,321.301167 99.3393333,369.157833 101.299333,416.973667 C102.418167,443.997167 144.484667,444.103333 143.357667,416.973667 C140.834167,355.944167 140.744333,294.890167 140.744333,233.811667 C140.744333,231.917 140.491167,230.193833 140.107333,228.536 C140.050167,202.018833 139.0375,175.477167 139.347833,148.976333 C151.8755,170.185167 153.018833,202.533333 150.8465,223.497167 C148.380167,247.074333 185.1955,246.8375 187.629167,223.497167 C193.370333,168.372167 172.545333,95.7051667 108.257333,91.1645 Z" id="Shape"></path>
        </g>
    </g>
</svg>